Efficient extraction of spatial-temporal environmental statistics over small to medium spatial scales • getRemoteData
…
Workflow preparation

Read the credentials to EarthData for further download of MODIS and GPM data.

earthdata_credentials<-readLines(path_to_earthdata_credentials)
username_EarthData<-strsplit(earthdata_credentials,"=")[[1]][2]
password_EarthData<-strsplit(earthdata_credentials,"=")[[2]][2]
httr::set_config(authenticate(user=username_EarthData, password=password_EarthData, type = "basic"))

Open the dataset that contains the dates and locations of interest.

hlc_dates_loc<-read_csv(path_to_input_dates_loc)
hlc_dates_loc
#> # A tibble: 927 x 4
#>    id    date       longitude latitude
#>    <chr> <date>         <dbl>    <dbl>
#>  1 1BAP1 2016-10-02     -5.67     9.24
#>  2 1BAP2 2016-10-02     -5.67     9.24
#>  3 1BAP3 2016-10-02     -5.67     9.24
#>  4 1BAP4 2016-10-02     -5.67     9.24
#>  5 1FEL1 2016-10-08     -5.47     9.45
#>  6 1FEL2 2016-10-08     -5.47     9.45
#>  7 1FEL3 2016-10-08     -5.47     9.45
#>  8 1FEL4 2016-10-08     -5.47     9.45
#>  9 1FLA1 2016-09-28     -5.61     9.29
#> 10 1FLA2 2016-09-28     -5.61     9.30
#> # … with 917 more rows
…
We group the dataset by date of interest. Output is a tibble whose observations (i.e. rows) are, for each date of interest, a SpatialPointsDataFrame object with all the locations of interest for that date.

df_dates_loc<-hlc_dates_loc %>% 
  mutate(date=as.Date(date)) %>%
  group_by(date) %>%
  arrange(date) %>%
  nest(latitude,longitude,id) %>%
  set_names(c("date_date","coords")) %>%
  mutate(sp_points=map(coords,~SpatialPointsDataFrame(coords=data.frame(.$longitude,.$latitude),data=.,proj4string=CRS("+init=epsg:4326")))) %>%
  dplyr::select(-coords) %>%
  mutate(date_numeric=as.integer(date_date))  %>%
  mutate(lagTime_timeSeries=lagTime_timeSeries)
df_dates_loc
#> # A tibble: 85 x 4
#>    date_date  sp_points  date_numeric lagTime_timeSeries
#>    <date>     <list>            <int>              <dbl>
#>  1 2016-09-21 <SptlPnDF>        17065                 40
#>  2 2016-09-22 <SptlPnDF>        17066                 40
#>  3 2016-09-23 <SptlPnDF>        17067                 40
#>  4 2016-09-24 <SptlPnDF>        17068                 40
#>  5 2016-09-26 <SptlPnDF>        17070                 40
#>  6 2016-09-27 <SptlPnDF>        17071                 40
#>  7 2016-09-28 <SptlPnDF>        17072                 40
#>  8 2016-09-29 <SptlPnDF>        17073                 40
#>  9 2016-09-30 <SptlPnDF>        17074                 40
#> 10 2016-10-02 <SptlPnDF>        17076                 40
#> # … with 75 more rows
…
